…
    ##  [1] "crim ~ zn"      "crim ~ indus"   "crim ~ chas"    "crim ~ nox"    
    ##  [5] "crim ~ rm"      "crim ~ age"     "crim ~ dis"     "crim ~ rad"    
    ##  [9] "crim ~ tax"     "crim ~ ptratio" "crim ~ black"   "crim ~ lstat"  
    ## [13] "crim ~ medv"

``` r
#assess model performance
model_coefs = map_df(models, tidy, .id = "Model")
model_coefs
```

    ## # A tibble: 26 x 6
    ##    Model        term        estimate std.error statistic  p.value
    ##    <chr>        <chr>          <dbl>     <dbl>     <dbl>    <dbl>
    ##  1 crim ~ zn    (Intercept)   4.45      0.417      10.7  4.04e-24
    ##  2 crim ~ zn    zn           -0.0739    0.0161     -4.59 5.51e- 6
    ##  3 crim ~ indus (Intercept)  -2.06      0.667      -3.09 2.09e- 3
    ##  4 crim ~ indus indus         0.510     0.0510      9.99 1.45e-21
    ##  5 crim ~ chas  (Intercept)   3.74      0.396       9.45 1.24e-19
    ##  6 crim ~ chas  chas         -1.89      1.51       -1.26 2.09e- 1
    ##  7 crim ~ nox   (Intercept) -13.7       1.70       -8.07 5.08e-15
    ##  8 crim ~ nox   nox          31.2       3.00       10.4  3.75e-23
    ##  9 crim ~ rm    (Intercept)  20.5       3.36        6.09 2.27e- 9
    ## 10 crim ~ rm    rm           -2.68      0.532      -5.04 6.35e- 7
    ## # … with 16 more rows
…
``` r
model_coefs
```

    ## # A tibble: 26 x 6
    ##    Model        term        estimate std.error statistic  p.value
    ##    <chr>        <chr>          <dbl>     <dbl>     <dbl>    <dbl>
    ##  1 crim ~ zn    (Intercept)   4.45      0.417      10.7  4.04e-24
    ##  2 crim ~ zn    zn           -0.0739    0.0161     -4.59 5.51e- 6
    ##  3 crim ~ indus (Intercept)  -2.06      0.667      -3.09 2.09e- 3
    ##  4 crim ~ indus indus         0.510     0.0510      9.99 1.45e-21
    ##  5 crim ~ chas  (Intercept)   3.74      0.396       9.45 1.24e-19
    ##  6 crim ~ chas  chas         -1.89      1.51       -1.26 2.09e- 1
    ##  7 crim ~ nox   (Intercept) -13.7       1.70       -8.07 5.08e-15
    ##  8 crim ~ nox   nox          31.2       3.00       10.4  3.75e-23
    ##  9 crim ~ rm    (Intercept)  20.5       3.36        6.09 2.27e- 9
    ## 10 crim ~ rm    rm           -2.68      0.532      -5.04 6.35e- 7
    ## # … with 16 more rows
…
